http://127.0.0.1:8087/set/0_userdata.0.WamaCamera.state?value=00_10plusminleft
http://127.0.0.1:8087/set/0_userdata.0.WamaCamera.state?value=01_9minleft
http://127.0.0.1:8087/set/0_userdata.0.WamaCamera.state?value=02_off
http://127.0.0.1:8087/get/0_userdata.0.WamaCamera.state/?prettyPrint
http://127.0.0.1:8087/help
