{
    "initial_idx": 2,     
    "camera_interval_seconds": [{"index": "<default>", "seconds": 600 }, {"index": 0, "seconds": 10 }, {"index": 1, "seconds": 10 } ],
    "simpleApiAddress": "http://127.0.0.1:8087",
    "ioBrokerItem": "0_userdata.0.WamaCamera.state",
    "crop_rectangle": { "top": 120, "bottom": 344, "left": 200, "right": 500 },
    "target_size": { "width": 224, "height": 224 },
    "minimum_confidence": 0.55,    
    "confirm": [{"index": 1, "repetitions": 2}],
    "debug_log_path": "",
    "debug_images_states": [{ "index": "<default>", "capture": "True" }, { "index": 2, "capture": "False" }],
    "debug_command_server_port": 65111
}